[
  {
    "key" : 0,
    "item": "Bacon"
  },
  {
    "key" : 1,
    "item": "Bread"
  },
  {
    "key" : 2,
    "item": "Eggs"
  },
  {
    "key" : 3,
    "item": "Flour"
  },
  {
    "key" : 4,
    "item": "Milk"
  }
]
